(footprint DiodesInc_GEA20_WLCSP-20_1.70x2.10mm_Layout4x5_P0.4mm (version 20221018) (generator kicad-footprint-generator)
  (layer F.Cu)
  (descr "Diodes Incorporated WLCSP-20, GEA20, 1.7x2.1mm, 20 Ball, 4x5 Layout, 0.4mm Pitch, https://www.diodes.com/assets/Package-Files/GEA20.pdf")
  (tags "CSP 20 0.4")
  (attr smd)
  (fp_text reference REF** (at 0 -2.05) (layer F.SilkS)
    (effects (font (size 1 1) (thickness 0.15)))
  )
  (fp_text value DiodesInc_GEA20_WLCSP-20_1.70x2.10mm_Layout4x5_P0.4mm (at 0 2.05) (layer F.Fab)
    (effects (font (size 1 1) (thickness 0.15)))
  )
  (fp_line (start 0.85 1.05) (end -0.85 1.05)
    (stroke (width 0.1) (type solid)) (layer F.Fab))
  (fp_line (start -0.85 1.05) (end -0.85 -0.625)
    (stroke (width 0.1) (type solid)) (layer F.Fab))
  (fp_line (start -0.85 -0.625) (end -0.425 -1.05)
    (stroke (width 0.1) (type solid)) (layer F.Fab))
  (fp_line (start -0.425 -1.05) (end 0.85 -1.05)
    (stroke (width 0.1) (type solid)) (layer F.Fab))
  (fp_line (start 0.85 -1.05) (end 0.85 1.05)
    (stroke (width 0.1) (type solid)) (layer F.Fab))
  (fp_line (start -1.85 -2.05) (end -1.85 2.05)
    (stroke (width 0.05) (type solid)) (layer F.CrtYd))
  (fp_line (start -1.85 2.05) (end 1.85 2.05)
    (stroke (width 0.05) (type solid)) (layer F.CrtYd))
  (fp_line (start 1.85 2.05) (end 1.85 -2.05)
    (stroke (width 0.05) (type solid)) (layer F.CrtYd))
  (fp_line (start 1.85 -2.05) (end -1.85 -2.05)
    (stroke (width 0.05) (type solid)) (layer F.CrtYd))
  (fp_line (start -0.5425 -1.175) (end 0.975 -1.175)
    (stroke (width 0.12) (type solid)) (layer F.SilkS))
  (fp_line (start 0.975 -1.175) (end 0.975 1.175)
    (stroke (width 0.12) (type solid)) (layer F.SilkS))
  (fp_line (start 0.975 1.175) (end -0.975 1.175)
    (stroke (width 0.12) (type solid)) (layer F.SilkS))
  (fp_line (start -0.975 1.175) (end -0.975 -0.7425)
    (stroke (width 0.12) (type solid)) (layer F.SilkS))
  (pad A1 smd circle (at -0.6 -0.8) (size 0.23 0.23) (layers F.Cu F.Mask F.Paste))
  (pad A2 smd circle (at -0.2 -0.8) (size 0.23 0.23) (layers F.Cu F.Mask F.Paste))
  (pad A3 smd circle (at 0.2 -0.8) (size 0.23 0.23) (layers F.Cu F.Mask F.Paste))
  (pad A4 smd circle (at 0.6 -0.8) (size 0.23 0.23) (layers F.Cu F.Mask F.Paste))
  (pad B1 smd circle (at -0.6 -0.4) (size 0.23 0.23) (layers F.Cu F.Mask F.Paste))
  (pad B2 smd circle (at -0.2 -0.4) (size 0.23 0.23) (layers F.Cu F.Mask F.Paste))
  (pad B3 smd circle (at 0.2 -0.4) (size 0.23 0.23) (layers F.Cu F.Mask F.Paste))
  (pad B4 smd circle (at 0.6 -0.4) (size 0.23 0.23) (layers F.Cu F.Mask F.Paste))
  (pad C1 smd circle (at -0.6 0) (size 0.23 0.23) (layers F.Cu F.Mask F.Paste))
  (pad C2 smd circle (at -0.2 0) (size 0.23 0.23) (layers F.Cu F.Mask F.Paste))
  (pad C3 smd circle (at 0.2 0) (size 0.23 0.23) (layers F.Cu F.Mask F.Paste))
  (pad C4 smd circle (at 0.6 0) (size 0.23 0.23) (layers F.Cu F.Mask F.Paste))
  (pad D1 smd circle (at -0.6 0.4) (size 0.23 0.23) (layers F.Cu F.Mask F.Paste))
  (pad D2 smd circle (at -0.2 0.4) (size 0.23 0.23) (layers F.Cu F.Mask F.Paste))
  (pad D3 smd circle (at 0.2 0.4) (size 0.23 0.23) (layers F.Cu F.Mask F.Paste))
  (pad D4 smd circle (at 0.6 0.4) (size 0.23 0.23) (layers F.Cu F.Mask F.Paste))
  (pad E1 smd circle (at -0.6 0.8) (size 0.23 0.23) (layers F.Cu F.Mask F.Paste))
  (pad E2 smd circle (at -0.2 0.8) (size 0.23 0.23) (layers F.Cu F.Mask F.Paste))
  (pad E3 smd circle (at 0.2 0.8) (size 0.23 0.23) (layers F.Cu F.Mask F.Paste))
  (pad E4 smd circle (at 0.6 0.8) (size 0.23 0.23) (layers F.Cu F.Mask F.Paste))
  (fp_text user ${REFERENCE} (at 0 0 -90) (layer F.Fab)
    (effects (font (size 0.49 0.49) (thickness 0.0735)))
  )
  (model ${KICAD7_3DMODEL_DIR}/Package_CSP.3dshapes/DiodesInc_GEA20_WLCSP-20_1.70x2.10mm_Layout4x5_P0.4mm.wrl
    (offset (xyz 0 0 0))
    (scale (xyz 1 1 1))
    (rotate (xyz 0 0 0))
  )
)
